If your not using Y'z, then just wait for RKdock/launcher. It's gonna be great.

































































BE REAL BUDDAAAYYYY!!

















































damn lil jon sucks.







































I am so great.






































The word great is...great.












