Random Ass Pixel Icons


Made using the GIMP.

Inspired by a Jimmac video. The one where he had made that there white dog for that there mail thing.

extremely easy.

unlike Aguant.

only 48x48

128 aint so great any way.

that rhymed!

































Gimp is the siht





















































































Nas/Ludacris' "Virgo" has turned me on to Luda, I'll have to pick up his older albums. His current one is pretty good though. But if his contemporaries are any indication, he has fallen off pretty hard. Get Back!